<?xml version="1.0" encoding="UTF-8"?>
<CustomTab xmlns="http://soap.sforce.com/2006/04/metadata">
    <label>Fit-out and Event Services</label>
    <motif>Custom4: Hexagon</motif>
    <page>PropertyRequests</page>
</CustomTab>
