<?xml version="1.0" encoding="UTF-8"?>
<CustomTab xmlns="http://soap.sforce.com/2006/04/metadata">
    <customObject>true</customObject>
    <icon>HexaBPM__BPM_Documents/HexaBPM__Template.png</icon>
    <motif>Custom283: TV Widescreen</motif>
</CustomTab>
