<?xml version="1.0" encoding="UTF-8"?>
<CustomTab xmlns="http://soap.sforce.com/2006/04/metadata">
    <label>SR Status Tracker</label>
    <motif>Custom20: Airplane</motif>
    <page>SRStatusTracker</page>
</CustomTab>
