<?xml version="1.0" encoding="UTF-8"?>
<CustomTab xmlns="http://soap.sforce.com/2006/04/metadata">
    <label>Update Exception Date</label>
    <motif>Custom52: Balls</motif>
    <page>automatedFineProcess</page>
</CustomTab>
